﻿{
  "Objects": [
    {
      "Name": "Frustrated",
      "Description-en": "You feel like the world is against you",
      "Description": "Похоже весь мир настроен против вас",
      "IsLongterm": false,
      "Price" : "50",
      "Visible" : true,
      "EffectType": [ "Visible" ],
      "EffectCharacteristics": {
        "INT": -1,
        "STR": -1
      }
    },
    {
      "Name": "Happy",
      "Description-en": "You feel extra lucky today",
      "Description": "Сегодня вам точно везет больше чем обычно!",
      "IsLongterm": false,
      "Price" : "50",
      "Visible" : true,
      "EffectType": [ "Visible" ],
      "EffectCharacteristics": {
        "INT": 1,
        "STR": 1
      }
    },
    {
      "Name": "Pathfinder",
      "Description": "Вы отлично ориентируетесь в этой местности",
      "IsLongterm": false,
      "Price" : "50",
      "Visible" : true,
      "EffectType": [ "Visible" ],
      "EffectCharacteristics": {
        "INT": 1
      }
    },
    {
      "Name": "Vision",
      "Description-en": "You have seen future which may be quite useful",
      "Description": "Вы видели некоторое будущее и, возможно, вам это пригодится",
      "IsLongterm": true,
      "Price" : "50",
      "Visible" : true,
      "EffectType": [ "Visible" ],
      "EffectCharacteristics": {
        "INT": 2
      }
    },
    {
      "Name": "Wet",
      "Description-en": "You are all wet, and you not feel great",
      "Description": "Промок до нитки",
      "IsLongTerm": false,
      "Price" : "50",
      "Visible" : true,
      "EffectType": [ "Visible" ],
      "EffectCharacteristics": {
        "STR": -1
      }
    },
    {
      "Name": "Fatigue",
      "Description-en": "Your powers left you.",
      "Description": "Силы покинули вас.",
      "IsLongTerm": false,
      "Price" : "50",
      "Visible" : true,
      "EffectType": [ "Visible" ],
      "EffectCharacteristics": {
        "STR": -2
      }
    },
    {
      "Name": "Self-confidence",
      "Description-en": "You are definately better than anyone",
      "Description": "Чувство, что вы лучше всех",
      "IsLongTerm": false,
      "EffectCharacteristics": {
        "INT": 1,
        "STR": 1
      }
    },
    {
      "Name": "Social",
      "Description-en": "You are the best in talking to people",
      "Description": "Вам нет равных в разговорах с людьми",
      "IsLongTerm": true,
      "Price" : "50",
      "Visible" : true,
      "EffectType": [ "Visible" ],
      "EffectCharacteristics": {
        "INT": 2
      }
    },
    {
      "Name": "Lockpick",
      "Description-en": "You have a lockpick",
      "Description": "У вас есть отмычка",
      "IsLongterm": true,
      "Price" : "50",
      "Visible" : true,
      "EffectType": [ "Visible" ],
      "EffectCharacteristics": {
        "INT": 1
      }
    },
    {
      "Name": "Sword",
      "Description-en": "You a have a sword",
      "Description": "Меч в ножнах",
      "IsLongTerm": true,
      "Price" : "50",
      "Visible" : true,
      "EffectType": [ "Visible" ],
      "EffectCharacteristics": {
        "STR": 1
      }
    },
    {
      "Name": "Gem",
      "Description-en": "You have a gem",
      "Description": "У вас есть рубин",
      "IsLongterm": true,
      "Price" : "50",
      "Visible" : true,
      "EffectType": [ "Visible" ],
      "EffectCharacteristics": {
        "Gold": 50 
      }
    },
    {
      "Name": "Greater evil",
      "Description-en": "You encountered something mysterious and evil",
      "Description": "Вы повстречали что-то загадочное и злое",
      "IsLongterm": true,
      "EffectCharacteristics": {
        "STR": -1
      }
    },

    {
      "Name": "GoldMiner",
      "Description-en": "Whenether you can, you will find more gold",
      "Description": "Везде где только можно, вы находите больше золота",
      "IsLongterm": true,
      "Price" : "50",
      "Visible" : true,
      "EffectType": ["Visible"]
    },
    {
      "Name": "GoblinHater",
      "Description-en": "You hate them, and they hate you.",
      "Description": "Вы ненавидите их, а они вас.",
      "IsLongterm": true,
      "Price" : "50",
      "Visible" : true,
      "EffectType": [ "Visible" ],
      "EffectCharacteristics": {
        "STR": 1
      }
    },
    {
      "Name": "Wounded",
      "Description-en": "You cannot perform too active stuff. For a while",
      "Description": "Похоже придется воздержаться от активного образа жизни",
      "IsLongterm": false,
      "Price" : "50",
      "Visible" : true,
      "EffectType": ["Visible"],
      "EffectCharacteristics": {
        "STR": -1
      }
    }
  ]
}