﻿{
  "Objects": [
    {
      "Name": "city_abandonedhouse_comein",
      "Description-en": "Come in",
      "Description": "Войти внутрь",
      "Results": [
        "city_abandonedhouse_comein_treasure",
        "city_abandonedhouse_comein_corpse",
        "city_abandonedhouse_comein_intsuccess",
        "city_abandonedhouse_comein_intfail"
      ]
    },
    {
      "Name": "city_abandonedhouse_look",
      "Description-en": "Look into window",
      "Description": "Заглянуть в окно",
      "Results": [
        "city_abandonedhouse_look_ambush",
        "city_abandonedhouse_look_vision",
        "city_abandonedhouse_look_dust",
        "city_abandonedhouse_look_break"
      ]
    },
    {
      "Name": "city_abandonedhouse_knock",
      "Description-en": "Knock",
      "Description": "Постучаться",
      "Results": [
        "city_abandonedhouse_knock_madwoman",
        "city_abandonedhouse_knock_noble",
        "city_abandonedhouse_knock_coin",
        "city_abandonedhouse_knock_silence"
      ]
    },
    {
      "Name": "city_abandonedhouse_goaway",
      "Description-en": "Go away",
      "Description": "Уйти",
      "Results": [
        "city_abandonedhouse_goaway_luck",
        "city_abandonedhouse_goaway_thief",
        "city_abandonedhouse_goaway_rats",
        "city_abandonedhouse_goaway_robberysucc",
        "city_abandonedhouse_goaway_robberyfail"
      ]
    },
    {
      "Name": "city_droppedapples_help",
      "Description": "Помочь",
      "Results": [
        "city_droppedapples_help_gratitude",
        "city_droppedapples_help_laughter"
      ]
    },
    {
      "Name": "city_droppedapples_steal",
      "Description": "Украсть яблок",
      "Results": [
        "city_droppedapples_steal_guard",
        "city_droppedapples_steal_success"
      ]
    },
    {
      "Name": "city_droppedapples_makelaugh",
      "Description": "Поиздеваться",
      "Results": [
        "city_droppedapples_makelaugh_selflove",
        "city_droppedapples_makelaugh_socialshame"
      ]
    },
    {
      "Name": "city_escapedcat_helpSTR",
      "Description": "Использовать свою силу",
      "Results": [
        "city_escapedcat_helpSTR_success",
        "city_escapedcat_helpSTR_fail"
      ]
    },
    {
      "Name": "city_escapedcat_helpINT",
      "Description": "Подумать как помочь",
      "Results": [
        "city_escapedcat_helpINT_success",
        "city_escapedcat_helpINT_fail"
      ]
    },
    {
      "Name": "city_escapedcat_callHelp",
      "Description": "Позвать специалистов",
      "Results": [
        "city_escapedcat_callHelp_found",
        "city_escapedcat_callHelp_notNeeded"
      ]
    },
    {
      "Name": "city_escapedcat_throwstone",
      "Description": "Кинуть в кошку камень",
      "Results": [
        "city_escapedcat_throwstone_safe",
        "city_escapedcat_throwstone_wound"
      ]
    },
    {
      "Name": "forest_rivercross_CreateBoat",
      "Description-en": "Try to make a boat!",
      "Description": "Соорудить лодку!",
      "Results": [
        "forest_rivercross_BoatCreateFail",
        "forest_rivercross_BoatCreateSuccess"
      ]
    },
    {
      "Name": "forest_rivercross_Swimthrough",
      "Description-en": "Try to swim across?",
      "Description": "Переплыть",
      "Results": [
        "forest_rivercross_SwimFail",
        "forest_rivercross_SwimSuccess"
      ]
    },
    {
      "Name": "forest_rivercross_Askforhelp",
      "Description-en": "Look for help",
      "Description": "Поискать помощь",
      "Results": [
        "forest_rivercross_HelpFound",
        "forest_rivercross_AnotherWayFail",
        "forest_rivercross_AnotherWaySuccess"
      ]
    },
    {
      "Name": "forest_rivercross_findWay",
      "Description-en": "Look for another way",
      "Description": "Поискать другой путь",
      "Results": [
        "forest_rivercross_AnotherWaySuccess",
        "forest_rivercross_AnotherWayFail",
        "forest_rivercross_HelpFound"
      ]
    },
    {
      "Name": "forest_bandits_TrySpeak",
      "Description": "Попытаться вразумить этих сбившихся с пути ребят",
      "Results": [
        "forest_bandits_TrySpeak_success",
        "forest_bandits_robbed"
      ]
    },
    {
      "Name": "forest_bandits_Fight",
      "Description": "В бой!",
      "Results": [
        "forest_bandits_fight_win",
        "forest_bandits_fight_robbed"
      ]
    },
    {
      "Name": "forest_hunter_help",
      "Description-en": "Help",
      "Description": "Помочь",
      "Results": [
        "forest_hunter_help_village",
        "forest_hunter_help_cheated",
        "forest_hunter_help_riddler_success",
        "forest_hunter_help_riddler_fail"
      ]
    },
    {
      "Name": "forest_hunter_rob",
      "Description-en": "Rob",
      "Description": "Ограбить",
      "Results": [
        "forest_hunter_rob_success",
        "forest_hunter_rob_fail",
        "forest_hunter_rob_social"
      ]
    },
    {
      "Name": "Loot Treasure",
      "Description-en": "Loot it.",
      "Description": "Обыскать",
      "Results": [
        "LootSuccess",
        "LootFail"
      ]
    },
    {
      "Name": "Avoid Treasure",
      "Description-en": "Nah, it's pretty suspicious.",
      "Description": "Не, слишком подозрительно",
      "Results": [
        "TreasureAvoid",
        "Nothing"
      ], 
      "StatRequirements" : {
        "INT" : "3",
        "STR" : "0",
        "GOLD" : "0",
        "Stamina" : "0",
        "Kindness" : "0"
        }
    },
    {
      "Name": "StrShowOff",
      "Description-en": "You see what you can deal with problem by you muscles. And you gonna do it",
      "Description": "Задействовать мускулы",
      "Results": [
        "StrShowOffSuccess",
        "StrShowOffFail"
      ]
    },
    {
      "Name": "IntShowOff",
      "Description-en": "Use you brain do deal with it.",
      "Description": "Использовать смекалочку",
      "Results": [
        "IntShowOffSuccess",
        "IntShowOffFail"
      ]
    },
    {
      "Name": "Kill",
      "Description-en": "Trying to kill. Always works.",
      "Description": "Убить - всегда срабатывает",
      "NeededEffects": [
        "Sword"
      ],
      "Results": [
        "Kill",
        "Beaten"
      ]
    },
    {
      "Name": "WalkAway",
      "Description-en": "I have not time, sorry brah",
      "Description": "У меня нет времени, прости",
      "Results": [
        "WalkawaySuccess"
      ]
    },
    {
      "Name": "city_WalkToGate",
      "Description": "Пройти в городские ворота",
      "Results": [
          "city_WalkToGateResult"
      ]
    },
    {
      "Name": "forest_WalkForward",
      "Description": "Решительно двинуться вперед ",
      "Results": [
          "forest_WalkForwardResult"
      ]
    },
    {
      "Name": "forest_WalkBeCarefull",
      "Description": "Осторожно пойти в лес",
      "Results": [
          "forest_WalkBeCarefullResult"
      ]
    },
    {
      "Name": "city_WalkByWall",
      "Description": "Пройти вдоль стены",
      "Results": [
          "city_WalkByWallResult"
      ]
    },
    {
      "Name": "GambleAccept",
      "Description": "Испытать удачу",
      "Results": [
        "GambleStart"
      ]
    },
    {
      "Name": "Gamble_Bet",
      "Description": "Поднять ставки!",
      "Results": [
        "Gamble_Bet_Result1",
        "Gamble_Bet_Result2"
      ]
    },
    {
      "Name": "Gamble_Throw",
      "Description": "Кинуть кости!",
      "Results": [
        "Gamble_Play_Win1",
        "Gamble_Play_Lose1",
        "Gamble_Play_Win2",
        "Gamble_Play_Lose2"
      ]
    },
    {
      "Name": "Gamble_PlayAgain",
      "Description": "Ладно, давай еще разок.",
      "Results": [
        "GambleStart"
      ]
    }
  ]
}